examples/atomic_and.vcd
$version Generated by VerilatedVcd $end
$timescale 1ps $end
 $scope module TOP $end
  $var wire 1 8! clock $end
  $var wire 1 9! reset $end
  $var wire 1 :! io_apb_PSEL $end
  $var wire 1 ;! io_apb_PENABLE $end
  $var wire 1 <! io_apb_PWRITE $end
  $var wire 16 =! io_apb_PADDR [15:0] $end
  $var wire 16 >! io_apb_PWDATA [15:0] $end
  $var wire 16 ?! io_apb_PRDATA [15:0] $end
  $var wire 1 @! io_apb_PREADY $end
  $var wire 1 A! io_apb_PSLVERR $end
  $var wire 16 B! io_in [15:0] $end
  $var wire 16 C! io_out [15:0] $end
  $var wire 16 D! io_enable [15:0] $end
  $var wire 1 E! io_irq $end
  $scope module Gpio $end
   $var wire 1 8! clock $end
   $var wire 1 9! reset $end
   $var wire 1 :! io_apb_PSEL $end
   $var wire 1 ;! io_apb_PENABLE $end
   $var wire 1 <! io_apb_PWRITE $end
   $var wire 16 =! io_apb_PADDR [15:0] $end
   $var wire 16 >! io_apb_PWDATA [15:0] $end
   $var wire 16 ?! io_apb_PRDATA [15:0] $end
   $var wire 1 @! io_apb_PREADY $end
   $var wire 1 A! io_apb_PSLVERR $end
   $var wire 16 B! io_in [15:0] $end
   $var wire 16 C! io_out [15:0] $end
   $var wire 16 D! io_enable [15:0] $end
   $var wire 1 E! io_irq $end
   $var wire 16 # regs_DIRECTION [15:0] $end
   $var wire 16 $ regs_OUTPUT [15:0] $end
   $var wire 16 % regs_INPUT [15:0] $end
   $var wire 16 & regs_MODE [15:0] $end
   $var wire 4 ' regs_ATOMIC_OPERATION [3:0] $end
   $var wire 16 ( regs_ATOMIC_MASK [15:0] $end
   $var wire 1 ) regs_ATOMIC_SET $end
   $var wire 8 * regs_virtualPortOutput [7:0] $end
   $var wire 5 + regs_virtualToPhysicalMap_0 [4:0] $end
   $var wire 5 , regs_virtualToPhysicalMap_1 [4:0] $end
   $var wire 5 - regs_virtualToPhysicalMap_2 [4:0] $end
   $var wire 5 . regs_virtualToPhysicalMap_3 [4:0] $end
   $var wire 5 / regs_virtualToPhysicalMap_4 [4:0] $end
   $var wire 5 0 regs_virtualToPhysicalMap_5 [4:0] $end
   $var wire 5 1 regs_virtualToPhysicalMap_6 [4:0] $end
   $var wire 5 2 regs_virtualToPhysicalMap_7 [4:0] $end
   $var wire 1 3 regs_virtualPortEnable $end
   $var wire 16 4 regs_TRIGGER_TYPE [15:0] $end
   $var wire 16 5 regs_TRIGGER_LO [15:0] $end
   $var wire 16 6 regs_TRIGGER_HI [15:0] $end
   $var wire 16 7 regs_TRIGGER_STATUS [15:0] $end
   $var wire 16 8 regs_IRQ_ENABLE [15:0] $end
   $var wire 16 9 inSyncPrev [15:0] $end
   $var wire 16 : inSync_REG [15:0] $end
   $var wire 16 ; inSync [15:0] $end
   $var wire 16 =! shiftAddr [15:0] $end
   $var wire 16 F! shiftAddr_2 [15:0] $end
   $var wire 16 G! shiftAddr_3 [15:0] $end
   $var wire 16 H! shiftAddr_4 [15:0] $end
   $var wire 16 I! shiftAddr_5 [15:0] $end
   $var wire 16 J! shiftAddr_6 [15:0] $end
   $var wire 16 K! index [15:0] $end
   $var wire 16 L! shiftAddr_7 [15:0] $end
   $var wire 16 M! shiftAddr_8 [15:0] $end
   $var wire 16 N! shiftAddr_9 [15:0] $end
   $var wire 16 O! shiftAddr_10 [15:0] $end
   $var wire 16 P! shiftAddr_11 [15:0] $end
   $var wire 16 Q! shiftAddr_13 [15:0] $end
   $var wire 3 < condition [2:0] $end
   $var wire 1 = triggerStatusVec_0 $end
   $var wire 3 > condition_1 [2:0] $end
   $var wire 1 ? triggerStatusVec_1 $end
   $var wire 3 @ condition_2 [2:0] $end
   $var wire 1 A triggerStatusVec_2 $end
   $var wire 3 B condition_3 [2:0] $end
   $var wire 1 C triggerStatusVec_3 $end
   $var wire 3 D condition_4 [2:0] $end
   $var wire 1 E triggerStatusVec_4 $end
   $var wire 3 F condition_5 [2:0] $end
   $var wire 1 G triggerStatusVec_5 $end
   $var wire 3 H condition_6 [2:0] $end
   $var wire 1 I triggerStatusVec_6 $end
   $var wire 3 J condition_7 [2:0] $end
   $var wire 1 K triggerStatusVec_7 $end
   $var wire 3 L condition_8 [2:0] $end
   $var wire 1 M triggerStatusVec_8 $end
   $var wire 3 N condition_9 [2:0] $end
   $var wire 1 O triggerStatusVec_9 $end
   $var wire 3 P condition_10 [2:0] $end
   $var wire 1 Q triggerStatusVec_10 $end
   $var wire 3 R condition_11 [2:0] $end
   $var wire 1 S triggerStatusVec_11 $end
   $var wire 3 T condition_12 [2:0] $end
   $var wire 1 U triggerStatusVec_12 $end
   $var wire 3 V condition_13 [2:0] $end
   $var wire 1 W triggerStatusVec_13 $end
   $var wire 3 X condition_14 [2:0] $end
   $var wire 1 Y triggerStatusVec_14 $end
   $var wire 3 Z condition_15 [2:0] $end
   $var wire 1 [ triggerStatusVec_15 $end
   $var wire 8 \ TRIGGER_STATUS_lo [7:0] $end
   $var wire 1 ] atomicOperationTruthTable_0_0 $end
   $var wire 1 ^ atomicOperationTruthTable_0_1 $end
   $var wire 1 _ atomicOperationTruthTable_1_0 $end
   $var wire 1 ` atomicOperationTruthTable_1_1 $end
   $var wire 1 a output_inner_0 $end
   $var wire 1 b output_inner_1 $end
   $var wire 1 c output_inner_2 $end
   $var wire 1 d output_inner_3 $end
   $var wire 1 e output_inner_4 $end
   $var wire 1 f output_inner_5 $end
   $var wire 1 g output_inner_6 $end
   $var wire 1 h output_inner_7 $end
   $var wire 1 i output_inner_8 $end
   $var wire 1 j output_inner_9 $end
   $var wire 1 k output_inner_10 $end
   $var wire 1 l output_inner_11 $end
   $var wire 1 m output_inner_12 $end
   $var wire 1 n output_inner_13 $end
   $var wire 1 o output_inner_14 $end
   $var wire 1 p output_inner_15 $end
   $var wire 8 q OUTPUT_lo [7:0] $end
   $var wire 1 r outVec_15 $end
   $var wire 1 s enableVec_15 $end
   $var wire 1 t outVec_14 $end
   $var wire 1 u enableVec_14 $end
   $var wire 1 v outVec_13 $end
   $var wire 1 w enableVec_13 $end
   $var wire 1 x outVec_12 $end
   $var wire 1 y enableVec_12 $end
   $var wire 1 z outVec_11 $end
   $var wire 1 { enableVec_11 $end
   $var wire 1 | outVec_10 $end
   $var wire 1 } enableVec_10 $end
   $var wire 1 ~ outVec_9 $end
   $var wire 1 !! enableVec_9 $end
   $var wire 1 "! outVec_8 $end
   $var wire 1 #! enableVec_8 $end
   $var wire 1 $! outVec_7 $end
   $var wire 1 %! enableVec_7 $end
   $var wire 1 &! outVec_6 $end
   $var wire 1 '! enableVec_6 $end
   $var wire 1 (! outVec_5 $end
   $var wire 1 )! enableVec_5 $end
   $var wire 1 *! outVec_4 $end
   $var wire 1 +! enableVec_4 $end
   $var wire 1 ,! outVec_3 $end
   $var wire 1 -! enableVec_3 $end
   $var wire 1 .! outVec_2 $end
   $var wire 1 /! enableVec_2 $end
   $var wire 1 0! outVec_1 $end
   $var wire 1 1! enableVec_1 $end
   $var wire 1 2! outVec_0 $end
   $var wire 1 3! enableVec_0 $end
   $var wire 8 4! io_out_lo [7:0] $end
   $var wire 8 5! io_out_hi [7:0] $end
   $var wire 8 6! io_enable_lo [7:0] $end
   $var wire 8 7! io_enable_hi [7:0] $end
  $upscope $end
 $upscope $end
$enddefinitions $end


#0
b0000000000000000 #
b0000000000000000 $
b0000000000000000 %
b0000000000000000 &
b0000 '
b0000000000000000 (
0)
b00000000 *
b00000 +
b00000 ,
b00000 -
b00000 .
b00000 /
b00000 0
b00000 1
b00000 2
03
b0000000000000000 4
b0000000000000000 5
b0000000000000000 6
b0000000000000000 7
b0000000000000000 8
b0000000000000000 9
b0000000000000000 :
b0000000000000000 ;
b000 <
0=
b000 >
0?
b000 @
0A
b000 B
0C
b000 D
0E
b000 F
0G
b000 H
0I
b000 J
0K
b000 L
0M
b000 N
0O
b000 P
0Q
b000 R
0S
b000 T
0U
b000 V
0W
b000 X
0Y
b000 Z
0[
b00000000 \
0]
0^
0_
0`
0a
0b
0c
0d
0e
0f
0g
0h
0i
0j
0k
0l
0m
0n
0o
0p
b00000000 q
0r
0s
0t
0u
0v
0w
0x
0y
0z
0{
0|
0}
0~
0!!
0"!
0#!
0$!
0%!
0&!
0'!
0(!
0)!
0*!
0+!
0,!
0-!
0.!
0/!
00!
01!
02!
03!
b00000000 4!
b00000000 5!
b00000000 6!
b00000000 7!
08!
19!
0:!
0;!
0<!
b0000000000000000 =!
b0000000000000000 >!
b0000000000000000 ?!
0@!
0A!
b0000000000000000 B!
b0000000000000000 C!
b0000000000000000 D!
0E!
b1111111111111110 F!
b1111111111111010 G!
b1111111111111000 H!
b1111111111110111 I!
b1111111111110101 J!
b1111111111110100 K!
b1111111111101100 L!
b1111111111101011 M!
b1111111111101010 N!
b1111111111101000 O!
b1111111111100110 P!
b1111111111100010 Q!
#1
18!
#2
08!
#3
18!
#4
08!
09!
1:!
#5
18!
#6
08!
1;!
1<!
b0000000000001011 =!
1@!
b0000000000001001 F!
b0000000000000101 G!
b0000000000000011 H!
b0000000000000010 I!
b0000000000000000 J!
b1111111111111111 K!
b1111111111110111 L!
b1111111111110110 M!
b1111111111110101 N!
b1111111111110011 O!
b1111111111110001 P!
b1111111111101101 Q!
#7
18!
#8
08!
0:!
0;!
0@!
#9
18!
#10
08!
#11
18!
#12
08!
1:!
#13
18!
#14
08!
1;!
b0000000000001000 =!
b0000000000000100 >!
1@!
b0000000000000110 F!
b0000000000000010 G!
b0000000000000000 H!
b1111111111111111 I!
b1111111111111101 J!
b1111111111111100 K!
b1111111111110100 L!
b1111111111110011 M!
b1111111111110010 N!
b1111111111110000 O!
b1111111111101110 P!
b1111111111101010 Q!
#15
b0100 '
1`
18!
#16
08!
0:!
0;!
0@!
#17
18!
#18
08!
#19
18!
#20
08!
1:!
#21
18!
#22
08!
1;!
b0000000000001001 =!
b1110011110000011 >!
1@!
b0000000000000111 F!
b0000000000000011 G!
b0000000000000001 H!
b0000000000000000 I!
b1111111111111110 J!
b1111111111111101 K!
b1111111111110101 L!
b1111111111110100 M!
b1111111111110011 N!
b1111111111110001 O!
b1111111111101111 P!
b1111111111101011 Q!
#23
b1110011110000011 (
18!
#24
08!
0:!
0;!
0@!
#25
18!
#26
08!
#27
18!
#28
08!
1:!
#29
18!
#30
08!
1;!
b0000000000000010 =!
b1001011101110011 >!
1@!
b0000000000000000 F!
b1111111111111100 G!
b1111111111111010 H!
b1111111111111001 I!
b1111111111110111 J!
b1111111111110110 K!
b1111111111101110 L!
b1111111111101101 M!
b1111111111101100 N!
b1111111111101010 O!
b1111111111101000 P!
b1111111111100100 Q!
#31
b1001011101110011 $
1a
1b
1i
1j
1k
1p
b11100001 q
18!
#32
08!
0:!
0;!
0@!
#33
18!
#34
08!
#35
18!
#36
08!
1:!
#37
18!
#38
08!
1;!
0<!
b1001011101110011 ?!
1@!
#39
18!
#40
08!
#41
18!
#42
08!
0:!
0;!
b0000000000000000 ?!
0@!
#43
18!
#44
08!
#45
18!
#46
08!
1:!
#47
18!
#48
08!
1;!
1<!
b0000000000001011 =!
b0000000000000001 >!
1@!
b0000000000001001 F!
b0000000000000101 G!
b0000000000000011 H!
b0000000000000010 I!
b0000000000000000 J!
b1111111111111111 K!
b1111111111110111 L!
b1111111111110110 M!
b1111111111110101 N!
b1111111111110011 O!
b1111111111110001 P!
b1111111111101101 Q!
#49
1)
18!
#50
08!
0:!
0;!
0@!
#51
b1000011100000011 $
18!
#52
08!
#53
18!
#54
08!
1:!
#55
18!
#56
08!
1;!
0<!
b0000000000000010 =!
b1000011100000011 ?!
1@!
b0000000000000000 F!
b1111111111111100 G!
b1111111111111010 H!
b1111111111111001 I!
b1111111111110111 J!
b1111111111110110 K!
b1111111111101110 L!
b1111111111101101 M!
b1111111111101100 N!
b1111111111101010 O!
b1111111111101000 P!
b1111111111100100 Q!
#57
18!
#58
08!
#59
18!
#60
08!
0:!
0;!
b0000000000000000 ?!
0@!
#61
18!
#62
08!
#63
18!
#64
08!
1:!
#65
18!
#66
08!
1;!
1<!
b0000000000001011 =!
b0000000000000000 >!
1@!
b0000000000001001 F!
b0000000000000101 G!
b0000000000000011 H!
b0000000000000010 I!
b0000000000000000 J!
b1111111111111111 K!
b1111111111110111 L!
b1111111111110110 M!
b1111111111110101 N!
b1111111111110011 O!
b1111111111110001 P!
b1111111111101101 Q!
#67
0)
18!
#68
08!
0:!
0;!
0@!
#69
18!
#70
08!
#71
18!
#72
08!
1:!
#73
18!
#74
08!
1;!
b0000000000001000 =!
b0000000000000100 >!
1@!
b0000000000000110 F!
b0000000000000010 G!
b0000000000000000 H!
b1111111111111111 I!
b1111111111111101 J!
b1111111111111100 K!
b1111111111110100 L!
b1111111111110011 M!
b1111111111110010 N!
b1111111111110000 O!
b1111111111101110 P!
b1111111111101010 Q!
#75
18!
#76
08!
0:!
0;!
0@!
#77
18!
#78
08!
#79
18!
#80
08!
1:!
#81
18!
#82
08!
1;!
b0000000000001001 =!
b0000000111110111 >!
1@!
b0000000000000111 F!
b0000000000000011 G!
b0000000000000001 H!
b0000000000000000 I!
b1111111111111110 J!
b1111111111111101 K!
b1111111111110101 L!
b1111111111110100 M!
b1111111111110011 N!
b1111111111110001 O!
b1111111111101111 P!
b1111111111101011 Q!
#83
b0000000111110111 (
0j
0k
0p
b10000000 q
18!
#84
08!
0:!
0;!
0@!
#85
18!
#86
08!
#87
18!
#88
08!
1:!
#89
18!
#90
08!
1;!
b0000000000000010 =!
b1101111001110101 >!
1@!
b0000000000000000 F!
b1111111111111100 G!
b1111111111111010 H!
b1111111111111001 I!
b1111111111110111 J!
b1111111111110110 K!
b1111111111101110 L!
b1111111111101101 M!
b1111111111101100 N!
b1111111111101010 O!
b1111111111101000 P!
b1111111111100100 Q!
#91
b1101111001110101 $
0b
1c
1e
1f
1g
0i
b00000000 q
18!
#92
08!
0:!
0;!
0@!
#93
18!
#94
08!
#95
18!
#96
08!
1:!
#97
18!
#98
08!
1;!
0<!
b1101111001110101 ?!
1@!
#99
18!
#100
08!
#101
18!
#102
08!
0:!
0;!
b0000000000000000 ?!
0@!
#103
18!
#104
08!
#105
18!
#106
08!
1:!
#107
18!
#108
08!
1;!
1<!
b0000000000001011 =!
b0000000000000001 >!
1@!
b0000000000001001 F!
b0000000000000101 G!
b0000000000000011 H!
b0000000000000010 I!
b0000000000000000 J!
b1111111111111111 K!
b1111111111110111 L!
b1111111111110110 M!
b1111111111110101 N!
b1111111111110011 O!
b1111111111110001 P!
b1111111111101101 Q!
#109
1)
18!
#110
08!
0:!
0;!
0@!
#111
b0000000001110101 $
18!
#112
08!
#113
18!
#114
08!
1:!
#115
18!
#116
08!
1;!
0<!
b0000000000000010 =!
b0000000001110101 ?!
1@!
b0000000000000000 F!
b1111111111111100 G!
b1111111111111010 H!
b1111111111111001 I!
b1111111111110111 J!
b1111111111110110 K!
b1111111111101110 L!
b1111111111101101 M!
b1111111111101100 N!
b1111111111101010 O!
b1111111111101000 P!
b1111111111100100 Q!
#117
18!
#118
08!
#119
18!
#120
08!
0:!
0;!
b0000000000000000 ?!
0@!
#121
18!
#122
08!
#123
18!
#124
08!
1:!
#125
18!
#126
08!
1;!
1<!
b0000000000001011 =!
b0000000000000000 >!
1@!
b0000000000001001 F!
b0000000000000101 G!
b0000000000000011 H!
b0000000000000010 I!
b0000000000000000 J!
b1111111111111111 K!
b1111111111110111 L!
b1111111111110110 M!
b1111111111110101 N!
b1111111111110011 O!
b1111111111110001 P!
b1111111111101101 Q!
#127
0)
18!
#128
08!
0:!
0;!
0@!
#129
18!
#130
08!
#131
18!
#132
08!
1:!
#133
18!
#134
08!
1;!
b0000000000001000 =!
b0000000000000100 >!
1@!
b0000000000000110 F!
b0000000000000010 G!
b0000000000000000 H!
b1111111111111111 I!
b1111111111111101 J!
b1111111111111100 K!
b1111111111110100 L!
b1111111111110011 M!
b1111111111110010 N!
b1111111111110000 O!
b1111111111101110 P!
b1111111111101010 Q!
#135
18!
#136
08!
0:!
0;!
0@!
#137
18!
#138
08!
#139
18!
#140
08!
1:!
#141
18!
#142
08!
1;!
b0000000000001001 =!
b0000000111101000 >!
1@!
b0000000000000111 F!
b0000000000000011 G!
b0000000000000001 H!
b0000000000000000 I!
b1111111111111110 J!
b1111111111111101 K!
b1111111111110101 L!
b1111111111110100 M!
b1111111111110011 N!
b1111111111110001 O!
b1111111111101111 P!
b1111111111101011 Q!
#143
b0000000111101000 (
0a
0c
0e
18!
#144
08!
0:!
0;!
0@!
#145
18!
#146
08!
#147
18!
#148
08!
1:!
#149
18!
#150
08!
1;!
b0000000000000010 =!
b0001110100100101 >!
1@!
b0000000000000000 F!
b1111111111111100 G!
b1111111111111010 H!
b1111111111111001 I!
b1111111111110111 J!
b1111111111110110 K!
b1111111111101110 L!
b1111111111101101 M!
b1111111111101100 N!
b1111111111101010 O!
b1111111111101000 P!
b1111111111100100 Q!
#151
b0001110100100101 $
0g
1i
b10000000 q
18!
#152
08!
0:!
0;!
0@!
#153
18!
#154
08!
#155
18!
#156
08!
1:!
#157
18!
#158
08!
1;!
0<!
b0001110100100101 ?!
1@!
#159
18!
#160
08!
#161
18!
#162
08!
0:!
0;!
b0000000000000000 ?!
0@!
#163
18!
#164
08!
#165
18!
#166
08!
1:!
#167
18!
#168
08!
1;!
1<!
b0000000000001011 =!
b0000000000000001 >!
1@!
b0000000000001001 F!
b0000000000000101 G!
b0000000000000011 H!
b0000000000000010 I!
b0000000000000000 J!
b1111111111111111 K!
b1111111111110111 L!
b1111111111110110 M!
b1111111111110101 N!
b1111111111110011 O!
b1111111111110001 P!
b1111111111101101 Q!
#169
1)
18!
#170
08!
0:!
0;!
0@!
#171
b0000000100100000 $
18!
#172
08!
#173
18!
#174
08!
1:!
#175
18!
#176
08!
1;!
0<!
b0000000000000010 =!
b0000000100100000 ?!
1@!
b0000000000000000 F!
b1111111111111100 G!
b1111111111111010 H!
b1111111111111001 I!
b1111111111110111 J!
b1111111111110110 K!
b1111111111101110 L!
b1111111111101101 M!
b1111111111101100 N!
b1111111111101010 O!
b1111111111101000 P!
b1111111111100100 Q!
#177
18!
#178
08!
#179
18!
#180
08!
0:!
0;!
b0000000000000000 ?!
0@!
#181
18!
#182
08!
#183
18!
#184
08!
1:!
#185
18!
#186
08!
1;!
1<!
b0000000000001011 =!
b0000000000000000 >!
1@!
b0000000000001001 F!
b0000000000000101 G!
b0000000000000011 H!
b0000000000000010 I!
b0000000000000000 J!
b1111111111111111 K!
b1111111111110111 L!
b1111111111110110 M!
b1111111111110101 N!
b1111111111110011 O!
b1111111111110001 P!
b1111111111101101 Q!
#187
0)
18!
#188
08!
0:!
0;!
0@!
#189
18!
#190
08!
#191
18!
#192
08!
1:!
#193
18!
#194
08!
1;!
b0000000000001000 =!
b0000000000000100 >!
1@!
b0000000000000110 F!
b0000000000000010 G!
b0000000000000000 H!
b1111111111111111 I!
b1111111111111101 J!
b1111111111111100 K!
b1111111111110100 L!
b1111111111110011 M!
b1111111111110010 N!
b1111111111110000 O!
b1111111111101110 P!
b1111111111101010 Q!
#195
18!
#196
08!
0:!
0;!
0@!
#197
18!
#198
08!
#199
18!
#200
08!
1:!
#201
18!
#202
08!
1;!
b0000000000001001 =!
b1101110110101110 >!
1@!
b0000000000000111 F!
b0000000000000011 G!
b0000000000000001 H!
b0000000000000000 I!
b1111111111111110 J!
b1111111111111101 K!
b1111111111110101 L!
b1111111111110100 M!
b1111111111110011 N!
b1111111111110001 O!
b1111111111101111 P!
b1111111111101011 Q!
#203
b1101110110101110 (
18!
#204
08!
0:!
0;!
0@!
#205
18!
#206
08!
#207
18!
#208
08!
1:!
#209
18!
#210
08!
1;!
b0000000000000010 =!
b0100101101001011 >!
1@!
b0000000000000000 F!
b1111111111111100 G!
b1111111111111010 H!
b1111111111111001 I!
b1111111111110111 J!
b1111111111110110 K!
b1111111111101110 L!
b1111111111101101 M!
b1111111111101100 N!
b1111111111101010 O!
b1111111111101000 P!
b1111111111100100 Q!
#211
b0100101101001011 $
1b
1d
0f
1l
1o
b10010010 q
18!
#212
08!
0:!
0;!
0@!
#213
18!
#214
08!
#215
18!
#216
08!
1:!
#217
18!
#218
08!
1;!
0<!
b0100101101001011 ?!
1@!
#219
18!
#220
08!
#221
18!
#222
08!
0:!
0;!
b0000000000000000 ?!
0@!
#223
18!
#224
08!
#225
18!
#226
08!
1:!
#227
18!
#228
08!
1;!
1<!
b0000000000001011 =!
b0000000000000001 >!
1@!
b0000000000001001 F!
b0000000000000101 G!
b0000000000000011 H!
b0000000000000010 I!
b0000000000000000 J!
b1111111111111111 K!
b1111111111110111 L!
b1111111111110110 M!
b1111111111110101 N!
b1111111111110011 O!
b1111111111110001 P!
b1111111111101101 Q!
#229
1)
18!
#230
08!
0:!
0;!
0@!
#231
b0100100100001010 $
18!
#232
08!
#233
18!
#234
08!
1:!
#235
18!
#236
08!
1;!
0<!
b0000000000000010 =!
b0100100100001010 ?!
1@!
b0000000000000000 F!
b1111111111111100 G!
b1111111111111010 H!
b1111111111111001 I!
b1111111111110111 J!
b1111111111110110 K!
b1111111111101110 L!
b1111111111101101 M!
b1111111111101100 N!
b1111111111101010 O!
b1111111111101000 P!
b1111111111100100 Q!
#237
18!
#238
08!
#239
18!
#240
08!
0:!
0;!
b0000000000000000 ?!
0@!
#241
18!
#242
08!
#243
18!
#244
08!
1:!
#245
18!
#246
08!
1;!
1<!
b0000000000001011 =!
b0000000000000000 >!
1@!
b0000000000001001 F!
b0000000000000101 G!
b0000000000000011 H!
b0000000000000010 I!
b0000000000000000 J!
b1111111111111111 K!
b1111111111110111 L!
b1111111111110110 M!
b1111111111110101 N!
b1111111111110011 O!
b1111111111110001 P!
b1111111111101101 Q!
#247
0)
18!
#248
08!
0:!
0;!
0@!
#249
18!
#250
08!
#251
18!
#252
08!
1:!
#253
18!
#254
08!
1;!
b0000000000001000 =!
b0000000000000100 >!
1@!
b0000000000000110 F!
b0000000000000010 G!
b0000000000000000 H!
b1111111111111111 I!
b1111111111111101 J!
b1111111111111100 K!
b1111111111110100 L!
b1111111111110011 M!
b1111111111110010 N!
b1111111111110000 O!
b1111111111101110 P!
b1111111111101010 Q!
#255
18!
#256
08!
0:!
0;!
0@!
#257
18!
#258
08!
#259
18!
#260
08!
1:!
#261
18!
#262
08!
1;!
b0000000000001001 =!
b1011111010100110 >!
1@!
b0000000000000111 F!
b0000000000000011 G!
b0000000000000001 H!
b0000000000000000 I!
b1111111111111110 J!
b1111111111111101 K!
b1111111111110101 L!
b1111111111110100 M!
b1111111111110011 N!
b1111111111110001 O!
b1111111111101111 P!
b1111111111101011 Q!
#263
b1011111010100110 (
0d
0i
0o
b00010000 q
18!
#264
08!
0:!
0;!
0@!
#265
18!
#266
08!
#267
18!
#268
08!
1:!
#269
18!
#270
08!
1;!
b0000000000000010 =!
b1100101101110100 >!
1@!
b0000000000000000 F!
b1111111111111100 G!
b1111111111111010 H!
b1111111111111001 I!
b1111111111110111 J!
b1111111111110110 K!
b1111111111101110 L!
b1111111111101101 M!
b1111111111101100 N!
b1111111111101010 O!
b1111111111101000 P!
b1111111111100100 Q!
#271
b1100101101110100 $
0b
1c
1f
1j
1p
b01010001 q
18!
#272
08!
0:!
0;!
0@!
#273
18!
#274
08!
#275
18!
#276
08!
1:!
#277
18!
#278
08!
1;!
0<!
b1100101101110100 ?!
1@!
#279
18!
#280
08!
#281
18!
#282
08!
0:!
0;!
b0000000000000000 ?!
0@!
#283
18!
#284
08!
#285
18!
#286
08!
1:!
#287
18!
#288
08!
1;!
1<!
b0000000000001011 =!
b0000000000000001 >!
1@!
b0000000000001001 F!
b0000000000000101 G!
b0000000000000011 H!
b0000000000000010 I!
b0000000000000000 J!
b1111111111111111 K!
b1111111111110111 L!
b1111111111110110 M!
b1111111111110101 N!
b1111111111110011 O!
b1111111111110001 P!
b1111111111101101 Q!
#289
1)
18!
#290
08!
0:!
0;!
0@!
#291
b1000101000100100 $
18!
#292
08!
#293
18!
#294
08!
1:!
#295
18!
#296
08!
1;!
0<!
b0000000000000010 =!
b1000101000100100 ?!
1@!
b0000000000000000 F!
b1111111111111100 G!
b1111111111111010 H!
b1111111111111001 I!
b1111111111110111 J!
b1111111111110110 K!
b1111111111101110 L!
b1111111111101101 M!
b1111111111101100 N!
b1111111111101010 O!
b1111111111101000 P!
b1111111111100100 Q!
#297
18!
#298
08!
#299
18!
#300
08!
0:!
0;!
b0000000000000000 ?!
0@!
#301
18!
#302
08!
#303
18!
#304
08!
1:!
#305
18!
#306
08!
1;!
1<!
b0000000000001011 =!
b0000000000000000 >!
1@!
b0000000000001001 F!
b0000000000000101 G!
b0000000000000011 H!
b0000000000000010 I!
b0000000000000000 J!
b1111111111111111 K!
b1111111111110111 L!
b1111111111110110 M!
b1111111111110101 N!
b1111111111110011 O!
b1111111111110001 P!
b1111111111101101 Q!
#307
0)
18!
#308
08!
0:!
0;!
0@!
