examples/gpio_all.vcd
$version Generated by VerilatedVcd $end
$timescale 1ps $end
 $scope module TOP $end
  $var wire 1 2" clock $end
  $var wire 1 3" reset $end
  $var wire 1 4" io_apb_PSEL $end
  $var wire 1 5" io_apb_PENABLE $end
  $var wire 1 6" io_apb_PWRITE $end
  $var wire 16 7" io_apb_PADDR [15:0] $end
  $var wire 32 8" io_apb_PWDATA [31:0] $end
  $var wire 32 9" io_apb_PRDATA [31:0] $end
  $var wire 1 :" io_apb_PREADY $end
  $var wire 1 ;" io_apb_PSLVERR $end
  $var wire 32 <" io_in [31:0] $end
  $var wire 32 =" io_out [31:0] $end
  $var wire 32 >" io_enable [31:0] $end
  $var wire 1 ?" io_irq $end
  $scope module Gpio $end
   $var wire 1 2" clock $end
   $var wire 1 3" reset $end
   $var wire 1 4" io_apb_PSEL $end
   $var wire 1 5" io_apb_PENABLE $end
   $var wire 1 6" io_apb_PWRITE $end
   $var wire 16 7" io_apb_PADDR [15:0] $end
   $var wire 32 8" io_apb_PWDATA [31:0] $end
   $var wire 32 9" io_apb_PRDATA [31:0] $end
   $var wire 1 :" io_apb_PREADY $end
   $var wire 1 ;" io_apb_PSLVERR $end
   $var wire 32 <" io_in [31:0] $end
   $var wire 32 =" io_out [31:0] $end
   $var wire 32 >" io_enable [31:0] $end
   $var wire 1 ?" io_irq $end
   $var wire 32 # regs_DIRECTION [31:0] $end
   $var wire 32 $ regs_OUTPUT [31:0] $end
   $var wire 32 % regs_INPUT [31:0] $end
   $var wire 32 & regs_MODE [31:0] $end
   $var wire 4 ' regs_ATOMIC_OPERATION [3:0] $end
   $var wire 32 ( regs_ATOMIC_MASK [31:0] $end
   $var wire 1 ) regs_ATOMIC_SET $end
   $var wire 8 * regs_virtualPortOutput [7:0] $end
   $var wire 5 + regs_virtualToPhysicalMap_0 [4:0] $end
   $var wire 5 , regs_virtualToPhysicalMap_1 [4:0] $end
   $var wire 5 - regs_virtualToPhysicalMap_2 [4:0] $end
   $var wire 5 . regs_virtualToPhysicalMap_3 [4:0] $end
   $var wire 5 / regs_virtualToPhysicalMap_4 [4:0] $end
   $var wire 5 0 regs_virtualToPhysicalMap_5 [4:0] $end
   $var wire 5 1 regs_virtualToPhysicalMap_6 [4:0] $end
   $var wire 5 2 regs_virtualToPhysicalMap_7 [4:0] $end
   $var wire 1 3 regs_virtualPortEnable $end
   $var wire 32 4 regs_TRIGGER_TYPE [31:0] $end
   $var wire 32 5 regs_TRIGGER_LO [31:0] $end
   $var wire 32 6 regs_TRIGGER_HI [31:0] $end
   $var wire 32 7 regs_TRIGGER_STATUS [31:0] $end
   $var wire 32 8 regs_IRQ_ENABLE [31:0] $end
   $var wire 32 9 inSyncPrev [31:0] $end
   $var wire 32 : inSync_REG [31:0] $end
   $var wire 32 ; inSync [31:0] $end
   $var wire 16 7" shiftAddr [15:0] $end
   $var wire 16 @" shiftAddr_2 [15:0] $end
   $var wire 16 A" shiftAddr_3 [15:0] $end
   $var wire 16 B" shiftAddr_4 [15:0] $end
   $var wire 16 C" shiftAddr_5 [15:0] $end
   $var wire 16 D" shiftAddr_6 [15:0] $end
   $var wire 16 E" index [15:0] $end
   $var wire 16 F" shiftAddr_7 [15:0] $end
   $var wire 16 G" shiftAddr_8 [15:0] $end
   $var wire 16 H" shiftAddr_9 [15:0] $end
   $var wire 16 I" shiftAddr_10 [15:0] $end
   $var wire 16 J" shiftAddr_11 [15:0] $end
   $var wire 16 K" shiftAddr_13 [15:0] $end
   $var wire 3 < condition [2:0] $end
   $var wire 1 = triggerStatusVec_0 $end
   $var wire 3 > condition_1 [2:0] $end
   $var wire 1 ? triggerStatusVec_1 $end
   $var wire 3 @ condition_2 [2:0] $end
   $var wire 1 A triggerStatusVec_2 $end
   $var wire 3 B condition_3 [2:0] $end
   $var wire 1 C triggerStatusVec_3 $end
   $var wire 3 D condition_4 [2:0] $end
   $var wire 1 E triggerStatusVec_4 $end
   $var wire 3 F condition_5 [2:0] $end
   $var wire 1 G triggerStatusVec_5 $end
   $var wire 3 H condition_6 [2:0] $end
   $var wire 1 I triggerStatusVec_6 $end
   $var wire 3 J condition_7 [2:0] $end
   $var wire 1 K triggerStatusVec_7 $end
   $var wire 3 L condition_8 [2:0] $end
   $var wire 1 M triggerStatusVec_8 $end
   $var wire 3 N condition_9 [2:0] $end
   $var wire 1 O triggerStatusVec_9 $end
   $var wire 3 P condition_10 [2:0] $end
   $var wire 1 Q triggerStatusVec_10 $end
   $var wire 3 R condition_11 [2:0] $end
   $var wire 1 S triggerStatusVec_11 $end
   $var wire 3 T condition_12 [2:0] $end
   $var wire 1 U triggerStatusVec_12 $end
   $var wire 3 V condition_13 [2:0] $end
   $var wire 1 W triggerStatusVec_13 $end
   $var wire 3 X condition_14 [2:0] $end
   $var wire 1 Y triggerStatusVec_14 $end
   $var wire 3 Z condition_15 [2:0] $end
   $var wire 1 [ triggerStatusVec_15 $end
   $var wire 3 \ condition_16 [2:0] $end
   $var wire 1 ] triggerStatusVec_16 $end
   $var wire 3 ^ condition_17 [2:0] $end
   $var wire 1 _ triggerStatusVec_17 $end
   $var wire 3 ` condition_18 [2:0] $end
   $var wire 1 a triggerStatusVec_18 $end
   $var wire 3 b condition_19 [2:0] $end
   $var wire 1 c triggerStatusVec_19 $end
   $var wire 3 d condition_20 [2:0] $end
   $var wire 1 e triggerStatusVec_20 $end
   $var wire 3 f condition_21 [2:0] $end
   $var wire 1 g triggerStatusVec_21 $end
   $var wire 3 h condition_22 [2:0] $end
   $var wire 1 i triggerStatusVec_22 $end
   $var wire 3 j condition_23 [2:0] $end
   $var wire 1 k triggerStatusVec_23 $end
   $var wire 3 l condition_24 [2:0] $end
   $var wire 1 m triggerStatusVec_24 $end
   $var wire 3 n condition_25 [2:0] $end
   $var wire 1 o triggerStatusVec_25 $end
   $var wire 3 p condition_26 [2:0] $end
   $var wire 1 q triggerStatusVec_26 $end
   $var wire 3 r condition_27 [2:0] $end
   $var wire 1 s triggerStatusVec_27 $end
   $var wire 3 t condition_28 [2:0] $end
   $var wire 1 u triggerStatusVec_28 $end
   $var wire 3 v condition_29 [2:0] $end
   $var wire 1 w triggerStatusVec_29 $end
   $var wire 3 x condition_30 [2:0] $end
   $var wire 1 y triggerStatusVec_30 $end
   $var wire 3 z condition_31 [2:0] $end
   $var wire 1 { triggerStatusVec_31 $end
   $var wire 8 | TRIGGER_STATUS_lo_lo [7:0] $end
   $var wire 16 } TRIGGER_STATUS_lo [15:0] $end
   $var wire 8 ~ TRIGGER_STATUS_hi_lo [7:0] $end
   $var wire 1 !! atomicOperationTruthTable_0_0 $end
   $var wire 1 "! atomicOperationTruthTable_0_1 $end
   $var wire 1 #! atomicOperationTruthTable_1_0 $end
   $var wire 1 $! atomicOperationTruthTable_1_1 $end
   $var wire 1 %! output_inner_0 $end
   $var wire 1 &! output_inner_1 $end
   $var wire 1 '! output_inner_2 $end
   $var wire 1 (! output_inner_3 $end
   $var wire 1 )! output_inner_4 $end
   $var wire 1 *! output_inner_5 $end
   $var wire 1 +! output_inner_6 $end
   $var wire 1 ,! output_inner_7 $end
   $var wire 1 -! output_inner_8 $end
   $var wire 1 .! output_inner_9 $end
   $var wire 1 /! output_inner_10 $end
   $var wire 1 0! output_inner_11 $end
   $var wire 1 1! output_inner_12 $end
   $var wire 1 2! output_inner_13 $end
   $var wire 1 3! output_inner_14 $end
   $var wire 1 4! output_inner_15 $end
   $var wire 1 5! output_inner_16 $end
   $var wire 1 6! output_inner_17 $end
   $var wire 1 7! output_inner_18 $end
   $var wire 1 8! output_inner_19 $end
   $var wire 1 9! output_inner_20 $end
   $var wire 1 :! output_inner_21 $end
   $var wire 1 ;! output_inner_22 $end
   $var wire 1 <! output_inner_23 $end
   $var wire 1 =! output_inner_24 $end
   $var wire 1 >! output_inner_25 $end
   $var wire 1 ?! output_inner_26 $end
   $var wire 1 @! output_inner_27 $end
   $var wire 1 A! output_inner_28 $end
   $var wire 1 B! output_inner_29 $end
   $var wire 1 C! output_inner_30 $end
   $var wire 1 D! output_inner_31 $end
   $var wire 8 E! OUTPUT_lo_lo [7:0] $end
   $var wire 16 F! OUTPUT_lo [15:0] $end
   $var wire 8 G! OUTPUT_hi_lo [7:0] $end
   $var wire 1 H! outVec_31 $end
   $var wire 1 I! enableVec_31 $end
   $var wire 1 J! outVec_30 $end
   $var wire 1 K! enableVec_30 $end
   $var wire 1 L! outVec_29 $end
   $var wire 1 M! enableVec_29 $end
   $var wire 1 N! outVec_28 $end
   $var wire 1 O! enableVec_28 $end
   $var wire 1 P! outVec_27 $end
   $var wire 1 Q! enableVec_27 $end
   $var wire 1 R! outVec_26 $end
   $var wire 1 S! enableVec_26 $end
   $var wire 1 T! outVec_25 $end
   $var wire 1 U! enableVec_25 $end
   $var wire 1 V! outVec_24 $end
   $var wire 1 W! enableVec_24 $end
   $var wire 1 X! outVec_23 $end
   $var wire 1 Y! enableVec_23 $end
   $var wire 1 Z! outVec_22 $end
   $var wire 1 [! enableVec_22 $end
   $var wire 1 \! outVec_21 $end
   $var wire 1 ]! enableVec_21 $end
   $var wire 1 ^! outVec_20 $end
   $var wire 1 _! enableVec_20 $end
   $var wire 1 `! outVec_19 $end
   $var wire 1 a! enableVec_19 $end
   $var wire 1 b! outVec_18 $end
   $var wire 1 c! enableVec_18 $end
   $var wire 1 d! outVec_17 $end
   $var wire 1 e! enableVec_17 $end
   $var wire 1 f! outVec_16 $end
   $var wire 1 g! enableVec_16 $end
   $var wire 1 h! outVec_15 $end
   $var wire 1 i! enableVec_15 $end
   $var wire 1 j! outVec_14 $end
   $var wire 1 k! enableVec_14 $end
   $var wire 1 l! outVec_13 $end
   $var wire 1 m! enableVec_13 $end
   $var wire 1 n! outVec_12 $end
   $var wire 1 o! enableVec_12 $end
   $var wire 1 p! outVec_11 $end
   $var wire 1 q! enableVec_11 $end
   $var wire 1 r! outVec_10 $end
   $var wire 1 s! enableVec_10 $end
   $var wire 1 t! outVec_9 $end
   $var wire 1 u! enableVec_9 $end
   $var wire 1 v! outVec_8 $end
   $var wire 1 w! enableVec_8 $end
   $var wire 1 x! outVec_7 $end
   $var wire 1 y! enableVec_7 $end
   $var wire 1 z! outVec_6 $end
   $var wire 1 {! enableVec_6 $end
   $var wire 1 |! outVec_5 $end
   $var wire 1 }! enableVec_5 $end
   $var wire 1 ~! outVec_4 $end
   $var wire 1 !" enableVec_4 $end
   $var wire 1 "" outVec_3 $end
   $var wire 1 #" enableVec_3 $end
   $var wire 1 $" outVec_2 $end
   $var wire 1 %" enableVec_2 $end
   $var wire 1 &" outVec_1 $end
   $var wire 1 '" enableVec_1 $end
   $var wire 1 (" outVec_0 $end
   $var wire 1 )" enableVec_0 $end
   $var wire 8 *" io_out_lo_lo [7:0] $end
   $var wire 16 +" io_out_lo [15:0] $end
   $var wire 8 ," io_out_hi_lo [7:0] $end
   $var wire 16 -" io_out_hi [15:0] $end
   $var wire 8 ." io_enable_lo_lo [7:0] $end
   $var wire 16 /" io_enable_lo [15:0] $end
   $var wire 8 0" io_enable_hi_lo [7:0] $end
   $var wire 16 1" io_enable_hi [15:0] $end
  $upscope $end
 $upscope $end
$enddefinitions $end


#0
b00000000000000000000000000000000 #
b00000000000000000000000000000000 $
b00000000000000000000000000000000 %
b00000000000000000000000000000000 &
b0000 '
b00000000000000000000000000000000 (
0)
b00000000 *
b00000 +
b00000 ,
b00000 -
b00000 .
b00000 /
b00000 0
b00000 1
b00000 2
03
b00000000000000000000000000000000 4
b00000000000000000000000000000000 5
b00000000000000000000000000000000 6
b00000000000000000000000000000000 7
b00000000000000000000000000000000 8
b00000000000000000000000000000000 9
b00000000000000000000000000000000 :
b00000000000000000000000000000000 ;
b000 <
0=
b000 >
0?
b000 @
0A
b000 B
0C
b000 D
0E
b000 F
0G
b000 H
0I
b000 J
0K
b000 L
0M
b000 N
0O
b000 P
0Q
b000 R
0S
b000 T
0U
b000 V
0W
b000 X
0Y
b000 Z
0[
b000 \
0]
b000 ^
0_
b000 `
0a
b000 b
0c
b000 d
0e
b000 f
0g
b000 h
0i
b000 j
0k
b000 l
0m
b000 n
0o
b000 p
0q
b000 r
0s
b000 t
0u
b000 v
0w
b000 x
0y
b000 z
0{
b00000000 |
b0000000000000000 }
b00000000 ~
0!!
0"!
0#!
0$!
0%!
0&!
0'!
0(!
0)!
0*!
0+!
0,!
0-!
0.!
0/!
00!
01!
02!
03!
04!
05!
06!
07!
08!
09!
0:!
0;!
0<!
0=!
0>!
0?!
0@!
0A!
0B!
0C!
0D!
b00000000 E!
b0000000000000000 F!
b00000000 G!
0H!
0I!
0J!
0K!
0L!
0M!
0N!
0O!
0P!
0Q!
0R!
0S!
0T!
0U!
0V!
0W!
0X!
0Y!
0Z!
0[!
0\!
0]!
0^!
0_!
0`!
0a!
0b!
0c!
0d!
0e!
0f!
0g!
0h!
0i!
0j!
0k!
0l!
0m!
0n!
0o!
0p!
0q!
0r!
0s!
0t!
0u!
0v!
0w!
0x!
0y!
0z!
0{!
0|!
0}!
0~!
0!"
0""
0#"
0$"
0%"
0&"
0'"
0("
0)"
b00000000 *"
b0000000000000000 +"
b00000000 ,"
b0000000000000000 -"
b00000000 ."
b0000000000000000 /"
b00000000 0"
b0000000000000000 1"
02"
13"
04"
05"
06"
b0000000000000000 7"
b00000000000000000000000000000000 8"
b00000000000000000000000000000000 9"
0:"
0;"
b00000000000000000000000000000000 <"
b00000000000000000000000000000000 ="
b00000000000000000000000000000000 >"
0?"
b1111111111111100 @"
b1111111111110100 A"
b1111111111110000 B"
b1111111111101111 C"
b1111111111101011 D"
b1111111111101010 E"
b1111111111100010 F"
b1111111111100001 G"
b1111111111100000 H"
b1111111111011100 I"
b1111111111011000 J"
b1111111111010000 K"
#1
12"
#2
02"
#3
12"
#4
02"
03"
14"
#5
12"
#6
02"
15"
16"
b01011101111000000000011011000010 8"
1:"
#7
b01011101111000000000011011000010 #
1K!
1U!
1W!
1[!
1]!
1s!
1u!
1w!
1y!
1}!
1!"
1#"
1'"
b11000010 ."
b0000011011000010 /"
b11100000 0"
b0101110111100000 1"
12"
b01011101111000000000011011000010 >"
#8
02"
04"
05"
0:"
#9
12"
#10
02"
#11
12"
#12
02"
14"
#13
12"
#14
02"
15"
06"
b01011101111000000000011011000010 9"
1:"
#15
12"
#16
02"
#17
12"
#18
02"
04"
05"
b00000000000000000000000000000000 9"
0:"
#19
12"
#20
02"
#21
12"
#22
02"
14"
#23
12"
#24
02"
15"
16"
b00111011011000011111111010011000 8"
1:"
#25
b00111011011000011111111010011000 #
0K!
1O!
1Q!
0U!
1_!
1a!
1c!
1e!
1g!
1i!
0w!
1{!
0}!
1%"
0'"
b10011000 ."
b1111111010011000 /"
b01100001 0"
b0011101101100001 1"
12"
b00111011011000011111111010011000 >"
#26
02"
04"
05"
0:"
#27
12"
#28
02"
#29
12"
#30
02"
14"
#31
12"
#32
02"
15"
06"
b00111011011000011111111010011000 9"
1:"
#33
12"
#34
02"
#35
12"
#36
02"
04"
05"
b00000000000000000000000000000000 9"
0:"
#37
12"
#38
02"
#39
12"
#40
02"
14"
#41
12"
#42
02"
15"
16"
b0000000000000010 7"
b01000011001011010000010010101001 8"
1:"
b1111111111111110 @"
b1111111111110110 A"
b1111111111110010 B"
b1111111111110001 C"
b1111111111101101 D"
b1111111111101100 E"
b1111111111100100 F"
b1111111111100011 G"
b1111111111100010 H"
b1111111111011110 I"
b1111111111011010 J"
b1111111111010010 K"
#43
b00000100101010010000000000000000 #
0O!
0Q!
0W!
0[!
0]!
0_!
0a!
0c!
0e!
0g!
1o!
0u!
1w!
0y!
0{!
1}!
0!"
0#"
0%"
b00000000 ."
b0000000000000000 /"
b10101001 0"
b0000010010101001 1"
12"
b00000100101010010000000000000000 >"
#44
02"
04"
05"
0:"
#45
12"
#46
02"
#47
12"
#48
02"
14"
#49
12"
#50
02"
15"
06"
b00000100101010010000000000000000 9"
1:"
#51
12"
#52
02"
#53
12"
#54
02"
04"
05"
b00000000000000000000000000000000 9"
0:"
#55
12"
#56
02"
#57
12"
#58
02"
14"
#59
12"
#60
02"
15"
16"
b0000000000000011 7"
b00110111100010111101000101010110 8"
1:"
b1111111111111111 @"
b1111111111110111 A"
b1111111111110011 B"
b1111111111110010 C"
b1111111111101110 D"
b1111111111101101 E"
b1111111111100101 F"
b1111111111100100 G"
b1111111111100011 H"
b1111111111011111 I"
b1111111111011011 J"
b1111111111010011 K"
#61
b01010110000000000000000000000000 #
0i!
0o!
0s!
0w!
1{!
1#"
1'"
b00000000 0"
b0101011000000000 1"
12"
b01010110000000000000000000000000 >"
#62
02"
04"
05"
0:"
#63
12"
#64
02"
#65
12"
#66
02"
14"
#67
12"
#68
02"
15"
06"
b01010110000000000000000000000000 9"
1:"
#69
12"
#70
02"
#71
12"
#72
02"
04"
05"
b00000000000000000000000000000000 9"
0:"
#73
12"
#74
02"
#75
12"
#76
02"
14"
#77
12"
#78
02"
15"
16"
b0000000000000000 7"
b01001000011001111010001110100011 8"
1:"
b1111111111111100 @"
b1111111111110100 A"
b1111111111110000 B"
b1111111111101111 C"
b1111111111101011 D"
b1111111111101010 E"
b1111111111100010 F"
b1111111111100001 G"
b1111111111100000 H"
b1111111111011100 I"
b1111111111011000 J"
b1111111111010000 K"
#79
b01001000011001111010001110100011 #
1I!
1K!
1S!
1W!
1Y!
1[!
1c!
1g!
1i!
1k!
1m!
1s!
1u!
0{!
0}!
1!"
0#"
b10100011 ."
b1010001110100011 /"
b01100111 0"
b0100100001100111 1"
12"
b01001000011001111010001110100011 >"
#80
02"
04"
05"
0:"
#81
12"
#82
02"
#83
12"
#84
02"
14"
#85
12"
#86
02"
15"
06"
b01001000011001111010001110100011 9"
1:"
#87
12"
#88
02"
#89
12"
#90
02"
04"
05"
b00000000000000000000000000000000 9"
0:"
#91
12"
#92
02"
#93
12"
#94
02"
14"
#95
12"
#96
02"
15"
16"
b0000000000000100 7"
b01011101111000000000011011000010 8"
1:"
b0000000000000000 @"
b1111111111111000 A"
b1111111111110100 B"
b1111111111110011 C"
b1111111111101111 D"
b1111111111101110 E"
b1111111111100110 F"
b1111111111100101 G"
b1111111111100100 H"
b1111111111100000 I"
b1111111111011100 J"
b1111111111010100 K"
#97
b01011101111000000000011011000010 $
1J!
1V!
1Z!
1r!
1t!
1~!
1&"
b10000010 *"
b0000001010000010 +"
b01100000 ,"
b0100100001100000 -"
12"
b01001000011000000000001010000010 ="
#98
02"
04"
05"
0:"
#99
12"
#100
02"
#101
12"
#102
02"
14"
#103
12"
#104
02"
15"
06"
b01011101111000000000011011000010 9"
1:"
#105
12"
#106
02"
#107
12"
#108
02"
04"
05"
b00000000000000000000000000000000 9"
0:"
#109
12"
#110
02"
#111
12"
#112
02"
14"
#113
12"
#114
02"
15"
16"
b0000000000000101 7"
b00111011011000011111111010011000 8"
1:"
b0000000000000001 @"
b1111111111111001 A"
b1111111111110101 B"
b1111111111110100 C"
b1111111111110000 D"
b1111111111101111 E"
b1111111111100111 F"
b1111111111100110 G"
b1111111111100101 H"
b1111111111100001 I"
b1111111111011101 J"
b1111111111010101 K"
#115
b01100001111111101001100000000000 $
0J!
0V!
0Z!
1f!
1j!
1l!
0~!
b00000000 *"
b1000000000000000 +"
b01100110 ,"
b0100000001100110 -"
12"
b01000000011001101000000000000000 ="
#116
02"
04"
05"
0:"
#117
12"
#118
02"
#119
12"
#120
02"
14"
#121
12"
#122
02"
15"
06"
b01100001111111101001100000000000 9"
1:"
#123
12"
#124
02"
#125
12"
#126
02"
04"
05"
b00000000000000000000000000000000 9"
0:"
#127
12"
#128
02"
#129
12"
#130
02"
14"
#131
12"
#132
02"
15"
16"
b0000000000000110 7"
b01000011001011010000010010101001 8"
1:"
b0000000000000010 @"
b1111111111111010 A"
b1111111111110110 B"
b1111111111110101 C"
b1111111111110001 D"
b1111111111110000 E"
b1111111111101000 F"
b1111111111100111 G"
b1111111111100110 H"
b1111111111100010 I"
b1111111111011110 J"
b1111111111010110 K"
#133
b00000100101010010000000000000000 $
0f!
1h!
0j!
0l!
0t!
0&"
b0000000000000000 +"
b00100001 ,"
b0000000000100001 -"
12"
b00000000001000010000000000000000 ="
#134
02"
04"
05"
0:"
#135
12"
#136
02"
#137
12"
#138
02"
14"
#139
12"
#140
02"
15"
06"
b00000100101010010000000000000000 9"
1:"
#141
12"
#142
02"
#143
12"
#144
02"
04"
05"
b00000000000000000000000000000000 9"
0:"
#145
12"
#146
02"
#147
12"
#148
02"
14"
#149
12"
#150
02"
15"
16"
b0000000000000101 7"
b00110111100010111101000101010110 8"
1:"
b0000000000000001 @"
b1111111111111001 A"
b1111111111110101 B"
b1111111111110100 C"
b1111111111110000 D"
b1111111111101111 E"
b1111111111100111 F"
b1111111111100110 G"
b1111111111100101 H"
b1111111111100001 I"
b1111111111011101 J"
b1111111111010101 K"
#151
b10001011110100010101011000000000 $
1Z!
0r!
1t!
1~!
b0000001000000000 +"
b01000001 ,"
b0000100001000001 -"
12"
b00001000010000010000001000000000 ="
#152
02"
04"
05"
0:"
#153
12"
#154
02"
#155
12"
#156
02"
14"
#157
12"
#158
02"
15"
06"
b10001011110100010101011000000000 9"
1:"
#159
12"
#160
02"
#161
12"
#162
02"
04"
05"
b00000000000000000000000000000000 9"
0:"
#163
12"
#164
02"
#165
12"
#166
02"
14"
#167
12"
#168
02"
15"
16"
b0000000000000111 7"
b01001000011001111010001110100011 8"
1:"
b0000000000000011 @"
b1111111111111011 A"
b1111111111110111 B"
b1111111111110110 C"
b1111111111110010 D"
b1111111111110001 E"
b1111111111101001 F"
b1111111111101000 G"
b1111111111100111 H"
b1111111111100011 I"
b1111111111011111 J"
b1111111111010111 K"
#169
b10100011000000000000000000000000 $
0Z!
0h!
0t!
0~!
b0000000000000000 +"
b00000000 ,"
b0000000000000000 -"
12"
b00000000000000000000000000000000 ="
#170
02"
04"
05"
0:"
#171
12"
#172
02"
#173
12"
#174
02"
14"
#175
12"
#176
02"
15"
06"
b10100011000000000000000000000000 9"
1:"
#177
12"
#178
02"
#179
12"
#180
02"
04"
05"
b00000000000000000000000000000000 9"
0:"
#181
12"
#182
02"
#183
12"
#184
02"
b01011101111000000000011011000010 <"
#185
b01011101111000000000011011000010 :
12"
#186
02"
#187
b01011101111000000000011011000010 ;
12"
#188
02"
14"
#189
b01011101111000000000011011000010 %
b01011101111000000000011011000010 9
12"
#190
02"
15"
b0000000000001000 7"
b01011101111000000000011011000010 9"
1:"
b0000000000000100 @"
b1111111111111100 A"
b1111111111111000 B"
b1111111111110111 C"
b1111111111110011 D"
b1111111111110010 E"
b1111111111101010 F"
b1111111111101001 G"
b1111111111101000 H"
b1111111111100100 I"
b1111111111100000 J"
b1111111111011000 K"
#191
12"
#192
02"
#193
12"
#194
02"
04"
05"
b00000000000000000000000000000000 9"
0:"
#195
12"
#196
02"
#197
12"
#198
02"
b00111011011000011111111010011000 <"
#199
b00111011011000011111111010011000 :
12"
#200
02"
#201
b00111011011000011111111010011000 ;
12"
#202
02"
14"
#203
b00111011011000011111111010011000 %
b00111011011000011111111010011000 9
12"
#204
02"
15"
b00111011011000011111111010011000 9"
1:"
#205
12"
#206
02"
#207
12"
#208
02"
04"
05"
b00000000000000000000000000000000 9"
0:"
#209
12"
#210
02"
#211
12"
#212
02"
b01000011001011010000010010101001 <"
#213
b01000011001011010000010010101001 :
12"
#214
02"
#215
b01000011001011010000010010101001 ;
12"
#216
02"
14"
#217
b01000011001011010000010010101001 %
b01000011001011010000010010101001 9
12"
#218
02"
15"
b01000011001011010000010010101001 9"
1:"
#219
12"
#220
02"
#221
12"
#222
02"
04"
05"
b00000000000000000000000000000000 9"
0:"
#223
12"
#224
02"
#225
12"
#226
02"
b00110111100010111101000101010110 <"
#227
b00110111100010111101000101010110 :
12"
#228
02"
#229
b00110111100010111101000101010110 ;
12"
#230
02"
14"
#231
b00110111100010111101000101010110 %
b00110111100010111101000101010110 9
12"
#232
02"
15"
b00110111100010111101000101010110 9"
1:"
#233
12"
#234
02"
#235
12"
#236
02"
04"
05"
b00000000000000000000000000000000 9"
0:"
#237
12"
#238
02"
#239
12"
#240
02"
b01001000011001111010001110100011 <"
#241
b01001000011001111010001110100011 :
12"
#242
02"
#243
b01001000011001111010001110100011 ;
12"
#244
02"
14"
#245
b01001000011001111010001110100011 %
b01001000011001111010001110100011 9
12"
#246
02"
15"
b01001000011001111010001110100011 9"
1:"
#247
12"
#248
02"
#249
12"
#250
02"
04"
05"
b00000000000000000000000000000000 9"
0:"
#251
12"
#252
02"
#253
12"
#254
02"
14"
#255
12"
#256
02"
15"
16"
b0000000000001101 7"
b01011101111000000000011011000010 8"
1:"
b0000000000001001 @"
b0000000000000001 A"
b1111111111111101 B"
b1111111111111100 C"
b1111111111111000 D"
b1111111111110111 E"
b1111111111101111 F"
b1111111111101110 G"
b1111111111101101 H"
b1111111111101001 I"
b1111111111100101 J"
b1111111111011101 K"
#257
b11100000000001101100001000000000 &
12"
#258
02"
04"
05"
0:"
#259
12"
#260
02"
#261
12"
#262
02"
14"
#263
12"
#264
02"
15"
06"
b11100000000001101100001000000000 9"
1:"
#265
12"
#266
02"
#267
12"
#268
02"
04"
05"
b00000000000000000000000000000000 9"
0:"
#269
12"
#270
02"
#271
12"
#272
02"
14"
#273
12"
#274
02"
15"
16"
b00111011011000011111111010011000 8"
1:"
#275
b01100001111111101001100000000000 &
12"
#276
02"
04"
05"
0:"
#277
12"
#278
02"
#279
12"
#280
02"
14"
#281
12"
#282
02"
15"
06"
b01100001111111101001100000000000 9"
1:"
#283
12"
#284
02"
#285
12"
#286
02"
04"
05"
b00000000000000000000000000000000 9"
0:"
#287
12"
#288
02"
#289
12"
#290
02"
14"
#291
12"
#292
02"
15"
16"
b0000000000001111 7"
b01000011001011010000010010101001 8"
1:"
b0000000000001011 @"
b0000000000000011 A"
b1111111111111111 B"
b1111111111111110 C"
b1111111111111010 D"
b1111111111111001 E"
b1111111111110001 F"
b1111111111110000 G"
b1111111111101111 H"
b1111111111101011 I"
b1111111111100111 J"
b1111111111011111 K"
#293
b10101001000000000000000000000000 &
12"
#294
02"
04"
05"
0:"
#295
12"
#296
02"
#297
12"
#298
02"
14"
#299
12"
#300
02"
15"
06"
b10101001000000000000000000000000 9"
1:"
#301
12"
#302
02"
#303
12"
#304
02"
04"
05"
b00000000000000000000000000000000 9"
0:"
#305
12"
#306
02"
#307
12"
#308
02"
14"
#309
12"
#310
02"
15"
16"
b0000000000001110 7"
b00110111100010111101000101010110 8"
1:"
b0000000000001010 @"
b0000000000000010 A"
b1111111111111110 B"
b1111111111111101 C"
b1111111111111001 D"
b1111111111111000 E"
b1111111111110000 F"
b1111111111101111 G"
b1111111111101110 H"
b1111111111101010 I"
b1111111111100110 J"
b1111111111011110 K"
#311
b11010001010101100000000000000000 &
12"
#312
02"
04"
05"
0:"
#313
12"
#314
02"
#315
12"
#316
02"
14"
#317
12"
#318
02"
15"
06"
b11010001010101100000000000000000 9"
1:"
#319
12"
#320
02"
#321
12"
#322
02"
04"
05"
b00000000000000000000000000000000 9"
0:"
#323
12"
#324
02"
#325
12"
#326
02"
14"
#327
12"
#328
02"
15"
16"
b01001000011001111010001110100011 8"
1:"
#329
b10100011101000110000000000000000 &
12"
#330
02"
04"
05"
0:"
#331
12"
#332
02"
#333
12"
#334
02"
14"
#335
12"
#336
02"
15"
06"
b10100011101000110000000000000000 9"
1:"
#337
12"
#338
02"
#339
12"
#340
02"
04"
05"
b00000000000000000000000000000000 9"
0:"
#341
12"
#342
02"
#343
12"
#344
02"
14"
#345
12"
#346
02"
15"
16"
b0000000000110100 7"
b00000000000000000000000000001111 8"
1:"
1;"
b0000000000110000 @"
b0000000000101000 A"
b0000000000100100 B"
b0000000000100011 C"
b0000000000011111 D"
b0000000000011110 E"
b0000000000010110 F"
b0000000000010101 G"
b0000000000010100 H"
b0000000000010000 I"
b0000000000001100 J"
b0000000000000100 K"
#347
12"
#348
02"
04"
05"
0:"
#349
12"
#350
02"
#351
12"
#352
02"
#353
12"
#354
02"
#355
12"
#356
02"
14"
#357
12"
#358
02"
15"
06"
1:"
#359
12"
#360
02"
#361
12"
#362
02"
04"
05"
0:"
#363
12"
#364
02"
#365
12"
#366
02"
#367
12"
#368
02"
14"
#369
12"
#370
02"
15"
16"
b0000000000001100 7"
b00000000000000000000000000000000 8"
1:"
0;"
b0000000000001000 @"
b0000000000000000 A"
b1111111111111100 B"
b1111111111111011 C"
b1111111111110111 D"
b1111111111110110 E"
b1111111111101110 F"
b1111111111101101 G"
b1111111111101100 H"
b1111111111101000 I"
b1111111111100100 J"
b1111111111011100 K"
#371
b00000000000000000000000000000000 &
12"
#372
02"
04"
05"
0:"
#373
12"
#374
02"
#375
12"
#376
02"
14"
#377
12"
#378
02"
15"
b0000000000000100 7"
b01011101111000000000011011000010 8"
1:"
b0000000000000000 @"
b1111111111111000 A"
b1111111111110100 B"
b1111111111110011 C"
b1111111111101111 D"
b1111111111101110 E"
b1111111111100110 F"
b1111111111100101 G"
b1111111111100100 H"
b1111111111100000 I"
b1111111111011100 J"
b1111111111010100 K"
#379
b01011101111000000000011011000010 $
1J!
1V!
1Z!
1r!
1t!
1~!
1&"
b10000010 *"
b0000001010000010 +"
b01100000 ,"
b0100100001100000 -"
12"
b01001000011000000000001010000010 ="
#380
02"
04"
05"
0:"
#381
12"
#382
02"
#383
12"
#384
02"
14"
#385
12"
